<?xml version="1.0" encoding="UTF-8"?>
<svg xmlns="http://www.w3.org/2000/svg" xmlns:xlink="http://www.w3.org/1999/xlink" width="1439.984375pt" height="1568.015625pt" viewBox="0 0 1439.984375 1568.015625" version="1.1">
<defs>
<g>
<symbol overflow="visible" id="glyph0-0">
<path style="stroke:none;" d=""/>
</symbol>
<symbol overflow="visible" id="glyph0-1">
<path style="stroke:none;" d="M 128 0 C 204.796875 0 230.40625 -25.59375 230.40625 -76.796875 L 230.40625 -204.796875 L 179.203125 -204.796875 L 179.203125 -102.40625 C 179.203125 -25.59375 153.59375 -25.59375 128 -25.59375 C 102.40625 -25.59375 76.796875 -25.59375 76.796875 -102.40625 L 76.796875 -204.796875 L 25.59375 -204.796875 L 25.59375 -76.796875 C 25.59375 -25.59375 51.203125 0 128 0 Z M 128 0 "/>
</symbol>
<symbol overflow="visible" id="glyph0-2">
<path style="stroke:none;" d="M 25.59375 0 L 76.796875 0 L 128 -153.59375 L 179.203125 0 L 230.40625 0 L 153.59375 -204.796875 L 102.40625 -204.796875 Z M 128 -51.203125 L 179.203125 -51.203125 L 179.203125 -76.796875 L 128 -76.796875 Z M 76.796875 -51.203125 L 128 -51.203125 L 128 -76.796875 L 76.796875 -76.796875 Z M 76.796875 -51.203125 "/>
</symbol>
<symbol overflow="visible" id="glyph0-3">
<path style="stroke:none;" d="M 51.203125 0 L 76.796875 0 C 153.59375 0 179.203125 -25.59375 179.203125 -76.796875 L 179.203125 -204.796875 L 128 -204.796875 L 128 -76.796875 C 128 -25.59375 76.796875 -25.59375 25.59375 -76.796875 Z M 51.203125 0 "/>
</symbol>
<symbol overflow="visible" id="glyph0-4">
<path style="stroke:none;" d="M 25.59375 0 L 76.796875 0 L 76.796875 -76.796875 L 128 -76.796875 C 204.796875 -76.796875 204.796875 -204.796875 128 -204.796875 L 25.59375 -204.796875 Z M 76.796875 -102.40625 L 76.796875 -179.203125 L 102.40625 -179.203125 C 153.59375 -179.203125 153.59375 -102.40625 102.40625 -102.40625 Z M 76.796875 -102.40625 "/>
</symbol>
<symbol overflow="visible" id="glyph0-5">
<path style="stroke:none;" d="M 25.59375 0 L 179.203125 0 L 179.203125 -25.59375 L 76.796875 -25.59375 L 76.796875 -102.40625 L 153.59375 -102.40625 L 153.59375 -128 L 76.796875 -128 L 76.796875 -179.203125 L 179.203125 -179.203125 L 179.203125 -204.796875 L 25.59375 -204.796875 Z M 25.59375 0 "/>
</symbol>
<symbol overflow="visible" id="glyph0-6">
<path style="stroke:none;" d="M 25.59375 0 L 76.796875 0 L 76.796875 -204.796875 L 25.59375 -204.796875 Z M 204.796875 0 L 256 0 L 256 -204.796875 L 204.796875 -204.796875 Z M 51.203125 -179.203125 L 128 -76.796875 L 153.59375 -76.796875 L 230.40625 -179.203125 L 204.796875 -204.796875 L 128 -102.40625 L 153.59375 -102.40625 L 76.796875 -204.796875 Z M 51.203125 -179.203125 "/>
</symbol>
<symbol overflow="visible" id="glyph0-7">
<path style="stroke:none;" d="M 153.59375 0 L 204.796875 0 L 102.40625 -128 L 179.203125 -204.796875 L 153.59375 -204.796875 L 76.796875 -128 L 51.203125 -128 Z M 25.59375 0 L 76.796875 0 L 76.796875 -204.796875 L 25.59375 -204.796875 Z M 25.59375 0 "/>
</symbol>
<symbol overflow="visible" id="glyph0-8">
<path style="stroke:none;" d="M 102.40625 0 C 179.203125 0 204.796875 -51.203125 204.796875 -102.40625 C 204.796875 -153.59375 179.203125 -204.796875 102.40625 -204.796875 L 25.59375 -204.796875 L 25.59375 0 Z M 102.40625 -25.59375 L 76.796875 -25.59375 L 76.796875 -179.203125 L 102.40625 -179.203125 C 128 -179.203125 153.59375 -153.59375 153.59375 -102.40625 C 153.59375 -51.203125 128 -25.59375 102.40625 -25.59375 Z M 102.40625 -25.59375 "/>
</symbol>
<symbol overflow="visible" id="glyph0-9">
<path style="stroke:none;" d="M 128 0 C 153.59375 0 179.203125 0 204.796875 -25.59375 L 179.203125 -51.203125 C 179.203125 -51.203125 153.59375 -25.59375 128 -25.59375 C 102.40625 -25.59375 76.796875 -51.203125 76.796875 -102.40625 C 76.796875 -153.59375 102.40625 -179.203125 128 -179.203125 C 153.59375 -179.203125 179.203125 -153.59375 179.203125 -153.59375 L 204.796875 -179.203125 C 179.203125 -204.796875 128 -204.796875 128 -204.796875 C 51.203125 -204.796875 25.59375 -153.59375 25.59375 -102.40625 C 25.59375 -51.203125 51.203125 0 128 0 Z M 128 0 "/>
</symbol>
<symbol overflow="visible" id="glyph0-10">
<path style="stroke:none;" d="M 102.40625 0 L 153.59375 0 L 153.59375 -76.796875 L 230.40625 -204.796875 L 179.203125 -204.796875 L 102.40625 -76.796875 L 153.59375 -76.796875 L 76.796875 -204.796875 L 25.59375 -204.796875 L 102.40625 -76.796875 Z M 102.40625 0 "/>
</symbol>
<symbol overflow="visible" id="glyph0-11">
<path style="stroke:none;" d="M 25.59375 0 L 76.796875 0 L 76.796875 -102.40625 L 153.59375 -102.40625 L 153.59375 -128 L 76.796875 -128 L 76.796875 -179.203125 L 179.203125 -179.203125 L 179.203125 -204.796875 L 25.59375 -204.796875 Z M 25.59375 0 "/>
</symbol>
<symbol overflow="visible" id="glyph0-12">
<path style="stroke:none;" d="M 25.59375 0 L 204.796875 0 L 204.796875 -51.203125 L 102.40625 -51.203125 L 204.796875 -153.59375 L 204.796875 -204.796875 L 25.59375 -204.796875 L 25.59375 -153.59375 L 153.59375 -153.59375 L 25.59375 -25.59375 Z M 25.59375 0 "/>
</symbol>
<symbol overflow="visible" id="glyph0-13">
<path style="stroke:none;" d="M 128 0 C 204.796875 0 230.40625 -51.203125 230.40625 -102.40625 C 230.40625 -153.59375 204.796875 -204.796875 128 -204.796875 C 51.203125 -204.796875 25.59375 -153.59375 25.59375 -102.40625 C 25.59375 -51.203125 51.203125 0 128 0 Z M 128 -25.59375 C 102.40625 -25.59375 76.796875 -51.203125 76.796875 -102.40625 C 76.796875 -153.59375 102.40625 -179.203125 128 -179.203125 C 153.59375 -179.203125 179.203125 -153.59375 179.203125 -102.40625 C 179.203125 -51.203125 153.59375 -25.59375 128 -25.59375 Z M 128 -25.59375 "/>
</symbol>
<symbol overflow="visible" id="glyph0-14">
<path style="stroke:none;" d="M 76.796875 0 L 128 0 L 128 -179.203125 L 179.203125 -179.203125 L 179.203125 -204.796875 L 25.59375 -204.796875 L 25.59375 -179.203125 L 76.796875 -179.203125 Z M 76.796875 0 "/>
</symbol>
<symbol overflow="visible" id="glyph0-15">
<path style="stroke:none;" d="M 25.59375 0 L 76.796875 0 L 76.796875 -102.40625 L 153.59375 -102.40625 L 153.59375 0 L 204.796875 0 L 204.796875 -204.796875 L 153.59375 -204.796875 L 153.59375 -128 L 76.796875 -128 L 76.796875 -204.796875 L 25.59375 -204.796875 Z M 25.59375 0 "/>
</symbol>
<symbol overflow="visible" id="glyph0-16">
<path style="stroke:none;" d="M 25.59375 0 L 102.40625 0 C 230.40625 0 204.796875 -102.40625 153.59375 -128 L 153.59375 -102.40625 C 204.796875 -128 179.203125 -204.796875 128 -204.796875 L 25.59375 -204.796875 Z M 76.796875 -25.59375 L 76.796875 -102.40625 L 102.40625 -102.40625 C 179.203125 -102.40625 179.203125 -25.59375 102.40625 -25.59375 Z M 76.796875 -128 L 76.796875 -179.203125 L 102.40625 -179.203125 C 128 -179.203125 153.59375 -179.203125 153.59375 -153.59375 C 153.59375 -128 128 -128 102.40625 -128 Z M 76.796875 -128 "/>
</symbol>
<symbol overflow="visible" id="glyph0-17">
<path style="stroke:none;" d="M 102.40625 0 L 128 0 L 204.796875 -204.796875 L 153.59375 -204.796875 L 102.40625 -51.203125 L 128 -51.203125 L 76.796875 -204.796875 L 25.59375 -204.796875 Z M 102.40625 0 "/>
</symbol>
<symbol overflow="visible" id="glyph0-18">
<path style="stroke:none;" d="M 153.59375 0 L 204.796875 0 L 76.796875 -204.796875 L 25.59375 -204.796875 Z M 25.59375 0 L 51.203125 25.59375 L 204.796875 -204.796875 L 179.203125 -230.40625 Z M 25.59375 0 "/>
</symbol>
<symbol overflow="visible" id="glyph0-19">
<path style="stroke:none;" d="M 25.59375 0 L 76.796875 0 L 76.796875 -204.796875 L 25.59375 -204.796875 Z M 25.59375 0 "/>
</symbol>
<symbol overflow="visible" id="glyph0-20">
<path style="stroke:none;" d="M 25.59375 0 L 76.796875 0 L 76.796875 -76.796875 L 128 -76.796875 C 204.796875 -76.796875 204.796875 -204.796875 128 -204.796875 L 25.59375 -204.796875 Z M 76.796875 -102.40625 L 76.796875 -179.203125 L 102.40625 -179.203125 C 153.59375 -179.203125 153.59375 -102.40625 102.40625 -102.40625 Z M 128 0 L 179.203125 0 L 128 -102.40625 L 102.40625 -76.796875 Z M 128 0 "/>
</symbol>
<symbol overflow="visible" id="glyph0-21">
<path style="stroke:none;" d="M 179.203125 0 L 204.796875 -25.59375 L 76.796875 -204.796875 L 51.203125 -179.203125 Z M 25.59375 0 L 76.796875 0 L 76.796875 -204.796875 L 25.59375 -204.796875 Z M 179.203125 0 L 204.796875 0 L 204.796875 -204.796875 L 153.59375 -204.796875 L 153.59375 -51.203125 Z M 179.203125 0 "/>
</symbol>
<symbol overflow="visible" id="glyph0-22">
<path style="stroke:none;" d="M 25.59375 -102.40625 L 76.796875 -102.40625 C 76.796875 -153.59375 102.40625 -179.203125 128 -179.203125 C 153.59375 -179.203125 179.203125 -153.59375 179.203125 -153.59375 L 204.796875 -179.203125 C 179.203125 -204.796875 128 -204.796875 128 -204.796875 C 51.203125 -204.796875 25.59375 -153.59375 25.59375 -102.40625 Z M 128 0 C 128 0 153.59375 0 179.203125 -25.59375 L 153.59375 -76.796875 C 153.59375 -51.203125 153.59375 -25.59375 128 -25.59375 C 102.40625 -25.59375 76.796875 -51.203125 76.796875 -102.40625 L 25.59375 -102.40625 C 25.59375 -51.203125 51.203125 0 128 0 Z M 179.203125 0 L 204.796875 0 L 204.796875 -102.40625 L 128 -102.40625 L 128 -76.796875 L 153.59375 -76.796875 Z M 179.203125 0 "/>
</symbol>
<symbol overflow="visible" id="glyph0-23">
<path style="stroke:none;" d="M 128 0 C 204.796875 0 230.40625 -51.203125 230.40625 -102.40625 C 230.40625 -153.59375 204.796875 -204.796875 128 -204.796875 C 51.203125 -204.796875 25.59375 -153.59375 25.59375 -102.40625 C 25.59375 -51.203125 51.203125 0 128 0 Z M 128 -25.59375 C 102.40625 -25.59375 76.796875 -51.203125 76.796875 -102.40625 C 76.796875 -153.59375 102.40625 -179.203125 128 -179.203125 C 153.59375 -179.203125 179.203125 -153.59375 179.203125 -102.40625 C 179.203125 -51.203125 153.59375 -25.59375 128 -25.59375 Z M 51.203125 0 L 51.203125 25.59375 C 76.796875 25.59375 102.40625 0 128 0 L 128 -25.59375 C 102.40625 -25.59375 76.796875 0 51.203125 0 Z M 51.203125 0 L 51.203125 25.59375 C 128 25.59375 128 51.203125 204.796875 51.203125 L 204.796875 25.59375 C 128 25.59375 128 0 51.203125 0 Z M 51.203125 0 "/>
</symbol>
<symbol overflow="visible" id="glyph0-24">
<path style="stroke:none;" d="M 102.40625 0 L 128 0 L 179.203125 -102.40625 L 153.59375 -153.59375 L 102.40625 -51.203125 L 128 -51.203125 L 76.796875 -204.796875 L 25.59375 -204.796875 Z M 204.796875 0 L 230.40625 0 L 307.203125 -204.796875 L 256 -204.796875 L 204.796875 -51.203125 L 230.40625 -51.203125 L 179.203125 -204.796875 L 128 -204.796875 Z M 204.796875 0 "/>
</symbol>
<symbol overflow="visible" id="glyph0-25">
<path style="stroke:none;" d="M 25.59375 0 L 179.203125 0 L 179.203125 -25.59375 L 76.796875 -25.59375 L 76.796875 -204.796875 L 25.59375 -204.796875 Z M 25.59375 0 "/>
</symbol>
<symbol overflow="visible" id="glyph0-26">
<path style="stroke:none;" d="M 51.203125 0 L 102.40625 0 C 179.203125 0 204.796875 -25.59375 204.796875 -51.203125 C 204.796875 -102.40625 102.40625 -128 102.40625 -153.59375 C 102.40625 -179.203125 128 -179.203125 128 -179.203125 C 153.59375 -179.203125 179.203125 -153.59375 179.203125 -153.59375 L 204.796875 -204.796875 L 128 -204.796875 C 76.796875 -204.796875 51.203125 -179.203125 51.203125 -153.59375 C 51.203125 -102.40625 153.59375 -76.796875 153.59375 -51.203125 C 153.59375 -25.59375 76.796875 -25.59375 25.59375 -51.203125 Z M 51.203125 0 "/>
</symbol>
</g>
</defs>
<g id="surface1">
<rect x="0" y="0" width="1439.984375" height="1568.015625" style="fill:rgb(60%,73.333333%,80%);fill-opacity:1;stroke:none;"/>
<g style="fill:rgb(0%,0%,0%);fill-opacity:1;">
  <use xlink:href="#glyph0-1" x="16" y="272"/>
  <use xlink:href="#glyph0-2" x="272" y="272"/>
  <use xlink:href="#glyph0-3" x="528" y="272"/>
  <use xlink:href="#glyph0-4" x="732.796875" y="272"/>
  <use xlink:href="#glyph0-5" x="937.59375" y="272"/>
  <use xlink:href="#glyph0-6" x="1142.390625" y="272"/>
</g>
<g style="fill:rgb(0%,0%,0%);fill-opacity:1;">
  <use xlink:href="#glyph0-7" x="16" y="579.203125"/>
  <use xlink:href="#glyph0-8" x="246.40625" y="579.203125"/>
  <use xlink:href="#glyph0-9" x="476.8125" y="579.203125"/>
  <use xlink:href="#glyph0-10" x="707.21875" y="579.203125"/>
  <use xlink:href="#glyph0-11" x="963.21875" y="579.203125"/>
  <use xlink:href="#glyph0-12" x="1168.015625" y="579.203125"/>
</g>
<g style="fill:rgb(0%,0%,0%);fill-opacity:1;">
  <use xlink:href="#glyph0-13" x="16" y="886.40625"/>
  <use xlink:href="#glyph0-14" x="272" y="886.40625"/>
  <use xlink:href="#glyph0-15" x="476.796875" y="886.40625"/>
  <use xlink:href="#glyph0-16" x="707.203125" y="886.40625"/>
  <use xlink:href="#glyph0-17" x="937.609375" y="886.40625"/>
  <use xlink:href="#glyph0-18" x="1168.015625" y="886.40625"/>
</g>
<g style="fill:rgb(0%,0%,0%);fill-opacity:1;">
  <use xlink:href="#glyph0-19" x="16" y="1193.609375"/>
  <use xlink:href="#glyph0-20" x="118.40625" y="1193.609375"/>
  <use xlink:href="#glyph0-21" x="323.203125" y="1193.609375"/>
  <use xlink:href="#glyph0-22" x="553.609375" y="1193.609375"/>
  <use xlink:href="#glyph0-23" x="784.015625" y="1193.609375"/>
  <use xlink:href="#glyph0-24" x="1040.015625" y="1193.609375"/>
</g>
<g style="fill:rgb(0%,0%,0%);fill-opacity:1;">
  <use xlink:href="#glyph0-25" x="16" y="1500.8125"/>
  <use xlink:href="#glyph0-26" x="220.796875" y="1500.8125"/>
</g>
</g>
</svg>
